{
    "AMOSL": [
        {   
            "image": require("../../assets/img/home/laboratory1.png"),
            "laboratory": "Advanced Materials and Organic Synthesis Laboratory",
            "introduction": "The Advanced Materials and Organic Synthesis Laboratory (AMOS) specializes in the development of novel organic molecules for various industrial applications such as pharmaceuticals, sensing, and optics. It also aims to establish greener and more efficient methodologies to obtain high-valued molecules. Moreover, AMOS is looking for applications of nanotechnology by designing and furnishing nanomaterials for biomedical and environmental applications.",
            "members": [
                "Asst. Prof. Ramuel John I. Tamargo (Head)", 
                "Alessandro Raphael Capistrano (Undergraduate student)",
                "Sabrina Marie Escalona (Undergraduate student)",
                "Azel Amada (Undergraduate student)",
                "Kaye Berenice Barriga (Undergraduate student)"
            ],
            "contactperson": "",
            "email": "",
            "mobile": "",
            "website": ""
        }
    ],
    "BEL": [
        {   
            "image": require("../../assets/img/home/laboratory2.png"),
            "laboratory": "Bioprocess Engineering Laboratory",
            "introduction": "",
            "members": [],
            "contactperson": "",
            "email": "",
            "mobile": "",
            "website": ""
        }
    ],
    "CRL": [
        {   
            "image": require("../../assets/img/home/laboratory3.png"),
            "laboratory": "Catalysis Research Laboratory",
            "introduction": "This is the Catalysis Research Laboratory. Our main focus includes studies of the fields of catalysis, reaction engineering, and reactor design for environmental and energy applications. In particular, we specialize in design and fabrication of reactors, optimization of reactor performance, and design of catalysts employing different dopants. We also perform studies on application of several catalytic materials and processes for the development of clean technologies. The research objectives of this laboratory are the following: To design and scale up new treatment processes; to design catalysts for clean energy; to evaluate catalytic and reactor efficiency, and; to improve the performance of catalysts and catalytic reactors. The laboratory already has a working reactor that is being used for wastewater treatment. The current focus of the laboratory is the design and development of a photocatalytic reactor for air treatment specifically to mitigate indoor air pollution.",
            "members": [
                "Prof. Maria Lourdes P. Dalida (Head)", 
                "Assoc. Prof. Marjorie L. Baynosa (Faculty)",
                "Jayson Sime D. Jeremias (Graduate student/Faculty)",
                "Allan Paolo Almajose (Graduate student)",
                "John Paul Penamente (Graduate student)"
            ],
            "contactperson": "",
            "email": "",
            "mobile": "",
            "website": "https://scholar.google.com/citations?user=0H3yYgYAAAAJ&hl=en&oi=ao"
        }
    ],
    "CEAL": [
        {   
            "image": require("../../assets/img/home/laboratory4.png"),
            "laboratory": "Chemical Engineering Analytical Laboratory",
            "introduction": "",
            "members": [],
            "contactperson": "",
            "email": "",
            "mobile": "",
            "website": ""
        }
    ],
    "CEILL": [
        {   
            "image": require("../../assets/img/home/laboratory5.png"),
            "laboratory": "Chemical Engineering Intelligence Learning Laboratory ",
            "introduction": "The Chemical Engineering Intelligence Learning Laboratory or ChILL for short is a laboratory that aims to use advances in Artificial Intelligence and Machine Learning in Chemical Engineering Problems. Our aim is to build a system that is meant to support Chemical Engineering research and decision making. As a brief overview of what we’re doing, we’re doing research on how industry 4.0 can be incorporated with the industry as well as current chemical engineering education and practice. Our main focus is on knowledge management in the data and information paradigm in chemical engineering. This includes gathering, storage, use and access of information as well as how to convert data into meaningful information. We use a variety of tools that are frequently used in artificial intelligence such as ontologies and machine learning - with classical, statistical and deep learning frameworks. Our targeted data sets include images and natural language, but we can also work with other unstructured data sets. We have several priority researches that involve various expertise in both Chemical Engineering and Machine Learning. The first (1st) priority research is in the expansion of the Natural Language Processing and Image Processing Databank for Chemical Engineering. The second (2nd) priority research involves the development of a populated knowledge management system for Chemical Engineering knowledge using Ontologies in various applications. Lastly, the third (3rd) priority research is to develop a framework that does the automation of the population of the Ontologies using Natural Language Processing.",
            "members": [
                "Asst. Prof Miguel Francisco M. Remolona (Head)", 
                "Andre Aganus (Graduate student)",
                "Dennis Arenas (Graduate student)",
                "Alvin Benter (Graduate student)",
                "Apraile Dumrigue (Graduate student)",
                "Cessile Garcia (Graduate student)",
                "Charles Rey (Graduate student)",
                "Harrison Chua (Undergraduate student)",
                "Lewis Eugenio (Undergraduate student)",
                "Camille Patubo (Undergraduate student)",
                "Joselle Reyna (Undergraduate student)"
            ],
            "contactperson": "",
            "email": "",
            "mobile": "",
            "website": ""
        }
    ],
    "EPEL": [
        {   
            "image": require("../../assets/img/home/laboratory6.png"),
            "laboratory": "Environmental Process Engineering Laboratory",
            "introduction": "Research at the Environmental Process Engineering Laboratory of DChE deals with sources, transport, transformation, fate, and impact of contaminants in the environment and development of upstream and end-of-pipe technologies that minimize emissions of pollutants in air, water and soil, as well optimize recovery or resources. Research focus:Biological process systems for industrial wastewater and slurries, biogenic solid wastes, remediation of contaminated soil and groundwater; Thermochemical, chemical and biological processes for recovery of material and energy resources from solid and liquid wastes Advanced oxidation processes for the treatment of micro-pollutants of emerging concern, such as dyes, antibiotics, endocrine disruptors and other pharmaceutical and personal care products Development of microbial consortium for bioremediation of contaminated soil and industrial wastewater treatment Developing rapid tests for detection of toxins and pathogens in water environment Clean technology for chemical process industries  Development of sustainability assessment tools for process systems",
            "members": [
                "Prof. Analiza P. Rollon (Head)", 
                "Prof. Florencio C. Ballesteros (Faculty)",
                "Prof. Mark Daniel G. de Luna (Faculty)",
                "Assoc. Prof. Marjorie L. Baynosa (Faculty)",
                "Asst. Prof. John Nikko V. Salvilla (Faculty)",
                "Teresa Mina (Graduate student)",
                "Rene Agustin (Graduate student)",
                "Aileen Castaneda (Graduate student)",
                "Kenneth Arguelles (Graduate student)",
                "Maria Cleofas Maceda (Graduate student)",
                "Jonathan Natarte (Graduate student)",
                "Aireen Dela Cruz (Graduate student)",
                "Jasper Castillo (Graduate student)",
                "Vince Carlo Garcia (Graduate student)",
                "Emelina Padayao (Graduate student)",
                "Joselito Olalo (Graduate student)",
                "Mark Sean P. Deang (Undergraduate student)",
                "Raphael Carlos T. Malixi (Undergraduate student)",
                "Ma. Carmina Excelene S. Tinitigan (Undergraduate student)"
            ],
            "contactperson": "",
            "email": "",
            "mobile": "",
            "website": ""
        }
    ],
    "FEATSL": [
        {   
            "image": require("../../assets/img/home/laboratory7.png"),
            "laboratory": "Fuels, Energy and Thermal Systems Laboratory",
            "introduction": "Our vision is to develop technologies and products that will contribute toward sustainable energy utilization.  With this vision, we train students to scan the technology horizon for important questions yet unanswered, needs yet unmet, and opportunities still emerging, and; use the scientific method to seek out answers/solutions/enabling technologies.Our focus is on more efficient, integrated and effective processes for converting water, biomass and other residue into fuels and high-value products. We aim to contribute to a better understanding of energy conversion and thermal systems that can inform toward their continuous development and promotion.",
            "members": [
                "Prof. Rizalinda L. De Leon (Head)", 
                "Asst. Prof. Kristian July Yap (Faculty)",
                "Engr. John Paul Nino Sanglay (Faculty)",
                "Alvin G. Palanca (Graduate student)",
                "Cherry V. Chao (Graduate student)",
                "Paolo Yves de Silos (Graduate student)",
                "Jericho Jan E. Andres (Graduate student)",
                "Viejay Z. Ordillo (Graduate student)",
                "Daphne C. Leal (Graduate student)",
                "Kirstie Alyssa N. de Pano (Undergraduate student)",
                "Averly Jerryl A. Escoto (Undergraduate student)",
                "Christian H. Delos Santos (Undergraduate student)",
                "Shaina Jane L. Sapio (Undergraduate student)",
                "Jill M. Pandaraoan (Undergraduate student)"
            ],
            "contactperson": "",
            "email": "",
            "mobile": "",
            "website": ""
        }
    ],
    "GML": [
        {   
            "image": require("../../assets/img/home/laboratory8.png"),
            "laboratory": "Green Materials Laboratory",
            "introduction": "The Green Materials Laboratory is a materials design and research laboratory for chemical engineering that was initially founded as a research group under the Polymers and Catalysis Laboratory back in 2011 before it became a separate laboratory in 2014. In line with the global efforts to mitigate the continual impacts of environmental challenges, the Laboratory is focused specifically on the study of bio-based and other environment-friendly materials with the intention of developing products and solutions to address existing industrial, commercial, biomedical and agricultural challenges. Its mission is to conduct research focused on (1) novel environment-friendly polymeric materials, (2) novel applications of bio-based materials, and (3) novel eco-friendly methods of producing and treating polymeric products. Using principles of environmental engineering, materials science, transport processes and chemical process design, the Green Materials Laboratory performs experimental and modelling studies in three different subfields: (1) green composites, such as natural fiber-reinforced polymeric (NFRP) materials using locally available plant fibers; (2) green polymers, such as bio-based hydrogels and bio-adhesives for biomedical and agricultural applications, and (3) green engineering, such as optimization of formulations during synthesis to reduce energy consumption. As a product design laboratory, its major goal is to develop more eco-friendly and cost-effective alternatives to existing commercial products and devices using locally available biomass that may potentially benefit a majority of the Filipino populace.",
            "members": [
                "Prof. Terence P. Tumolva (Head)", 
                "Michael Sean P. Deang - (Graduate student/Faculty)",
                "Paul Jake B. Nalzaro - (Graduate student/Faculty)",
                "Celestine Marie M. Dalida - (Graduate student)",
                "Chiena L. Palconite - (Graduate student)",
                "Isaac Marvin S. Patubo - (Graduate student)",
                "Charisse Joy H. Pescos - (Graduate student)",
                "Karynne Bernardine G. Siclot - (Graduate student)",
                "Anthony Joseph D. Cabrera (Undergraduate student)",
                "Jared S. Martinez (Undergraduate student)",
                "Tristan Zachary L. Tiu (Undergraduate student)"
            ],
            "contactperson": "",
            "email": "",
            "mobile": "",
            "website": "https://pages.upd.edu.ph/tumolva/gremlins"
        }
    ],
    "ISL": [
        {   
            "image": require("../../assets/img/home/laboratory9.png"),
            "laboratory": "Inorganic Synthesis Laboratory",
            "introduction": "The Inorganic Synthesis Laboratory (ISL) focuses on the discovery of new inorganic compounds (oxides, transition metal complexes, inorganic-organic hybrids, zeolites, coordination polymers, metal-organic frameworks, etc). For the exploratory synthesis, we are guided by the principles of solid-state chemistry, coordination chemistry, and chemical reaction engineering. In addition, we use the knowledge of crystallography to dig deeper on the crystal structure. We also utilize computational methods such as molecular orbital and density functional theories to aid us in designing novel compounds as well as correlating the crystal structure with the properties of the material. Spanning from fundamental science to applied research, our aim is to prepare unprecedented compounds with wide-range of applications in engineering and technology.",
            "members": [
                "Assoc. Prof Maurice Sorolla II (Head)"
            ],
            "contactperson": "",
            "email": "",
            "mobile": "",
            "website": ""
        }
    ],
    "LEE": [
        {   
            "image": require("../../assets/img/home/laboratory10.png"),
            "laboratory": "Laboratory of Electrochemical Engineering",
            "introduction": "The Laboratory of Electrochemical Engineering (LEE) is one of the few research groups in the country dedicated to the development of electrochemical energy conversion and storage systems. The group takes on the technological challenges of finding efficient and sustainable energy supply that can meet the demands of mankind while preserving the environment. Basic understanding of electrochemistry, physical chemistry, and catalysis are used in the development of renewable sources of energy (fuel cell systems), conversion and storage energy devices (batteries), clean water production (electrocoagulation, capacitive deionization), and environmental process technology (CO2-to-fuel conversion).Currently, the laboratory is involved in the following research fields: Fuel Cell Catalysis and Systems, Battery Chemistry and Systems ,Carbon Dioxide Capture and Conversion, Corrosion and Prevention, Supercapacitors, Water Electrocatalysis, Hydrogen Storage and Generation, Sensor Electrochemistry and Technology, Energy Storage Systems, Photochemical Water Splitting, As the laboratory grows, LEE will become a dedicated incubator of new ideas that increasingly blur the lines between the chemical and electrical engineering worlds. LEE will focus on the research and development of novel materials and systems for more efficient electrochemical technologies in energy, health, and environmental applications. Hence, the scientists and engineers working in LEE must be adept in chemical engineering, material science, electrochemistry, and catalysis., The R&D activities in the lab follows the V.I.R.A.L strategy, Vertically-Integrated Research Approach in LEE, which combines theory (DFT, KMC, Multi-physics, Energy Systems Modelling) and experiments to study electrochemistry and catalysis from the atomic and molecular level to grid-scale systems.",
            "members": [
                "Asst. Prof. Julie Anne D. del Rosario (Head)",
                "Assoc. Prof Joey D. Ocon (Faculty)",
                "Asst. Prof. Myron T. Alcanzare (Faculty)",
                "Maricor Divinagracia",
                "Michael Castro  (Graduate Student)",
                "Justine Mae Abarro  (Graduate Student)",
                "Daniel Eldrei Loresca  (Graduate Student)",
                "Neshreen Manalundong  (Graduate Student)",
                "Marcel Roy Domalanta  (Graduate Student)",
                "Gab Saplagio  (Graduate Student)",
                "Honesto Ovid Tubalinal  (Graduate Student)",
                "Marco Angelo Dejucos  (Graduate Student)",
                "Sol Loja  (Graduate Student)",
                "Goran Tomacruz  (Undergraduate Student)",
                "Jai Somera  (Undergraduate Student)",
                "Sean Pierce Parado  (Undergraduate Student)"
            ],
            "contactperson": "",
            "email": "",
            "mobile": "",
            "website": "http://lee-upd.com/"
        }
    ],
    "MML": [
        {   
            "image": require("../../assets/img/home/laboratory11.png"),
            "laboratory": "Molecular Modelling Laboratory",
            "introduction": "The Molecular Modeling Research Laboratory’s interests lie in multiscale modeling to aid in characterization, design, and synthesis of nanomaterials, small-molecule drugs, supramolecules, and biological systems. We identify problems where detailed molecular structures and interactions are needed and yet are difficult to establish even via complex experimental means. We have three main research thrusts: a) structure-based drug discovery and design; b) nanomaterial analysis and design; and c) pollution control. Drug molecules usually target to inhibit proteins essential to the spread of disease. Molecular modeling starts the process of drug discovery by finding suitable molecules that will bind to the target protein and effectively silence it. We are applying these techniques to finding potential drug candidates against several viruses (Dengue and several coronaviruses) and cancers. We will be collaborating with experimental research laboratories which could help us realize these molecules and test them for efficacy and therapeutic worthiness. Self-assembling systems are a great solution to drug delivery, tissue regeneration, catalysis, and optoelectronics, just to name a few. Recently, we have shown that a module derived from guanine and cytosine can self-assemble to form helical nanotubes. These nanotubes can be loaded with a small molecule drug and be functionalized on the surface for a targeted drug delivery. Our modeling studies elucidated its most probable structure, as well as establish a self-assembly pathway, which could help design these materials better. Understanding the behavior of pharmaceutical pollutants in wastewater at the atomic level can help us design the best way to capture them before they reach larger bodies of water. We are using molecular dynamics simulations and quantum chemical calculations to determine the adsorption capacity and kinetics of common pharmaceutical compounds on functionalized activated carbon. Our ultimate goal is to provide the best solution to the type of pollutants that an industry generates.",
            "members": [
                "Assoc. Prof. Arthur Gonzales III (Head)",
                "Mark Andrian Macalalad (Graduate student)",
                "Allen Matthew Cordero (Graduate student)",
                "Alexis Azucena (Graduate student)",
                "Carl David Cepeda (Graduate student)",
                "Mary Chie Eduba (Graduate student)",
                "Ryan Christian Suplito (Graduate student)",
                "Emelina Padayao (Graduate student)",
                "Armina Cualing (Graduate student)",
                "Daphne Karen Arenas (Undergraduate student)",
                "Marinelle Bayagan (Undergraduate student)",
                "Sabrina Nicole Blanco (Undergraduate student)",
                "Hazel Angelica Go (Undergraduate student)",
                "Patricia Ysabel Joson (Undergraduate student)",
                "Merk Jhunel Quilit (Undergraduate student)"
            ],
            "contactperson": "",
            "email": "",
            "mobile": "",
            "website": ""
        }
    ],
    "NRL": [
        {   
            "image": require("../../assets/img/home/laboratory12.png"),
            "laboratory": "Nanotechnology Research Laboratory",
            "introduction": "Materials produced by nanotechnology have been gaining significant importance in a wide range of applications because of their exceptional and interesting properties at the nanoscale that are unique compared to those of the large-scale and bulk counterparts. When working at dimensions less than 100 nm, these materials can be engineered by taking advantage of their responses when certain conditions in its environment have been varied. In this way, functionalized nanomaterials can be tailored for specific and selective applications, which is the main objective of the Nanotechnology Research Laboratory. To date, we have successfully synthesized new cost-effective multi-functional nanomaterials with different dimensions and structures (nanocomposites, nanotubes, nanosensors, nanofibers), studied their bulk and surface properties, and investigated their performances in environmental and biomedical applications. Currently, the laboratory is involved in the following research projects: Synthesis of novel metal-organic frameworks (MOF) for carbon dioxide capture and storage, Adsorption of pollutants in water using novel MOF-based polymer nanocomposite beads, Colorimetric detection of water pollutants using functionalized nanoparticles (development of paper-based nanosensors), Water purification using electrospun nanocomposite membranes, Photoelectrocatalytic degradation of recalcitrant pollutants under UV and visible light using doped titanium dioxide nanotubes",
            "members": [
                "Asst. Prof Jem Valerie D. Perez (Head)",
                "Asst. Prof. Marlon L. Mopon Jr. (Faculty)",
                "Sharona Q. Barroga (Graduate student)",
                "Isaac Jerome C. dela Cruz (Graduate student)",
                "Edgar Clyde R. Lopez (Graduate student)",
                "Marian Joy B. Alforque (Graduate student)",
                "Hilda Luzelle S. Medrano (Graduate student)",
                "Szeemaine Tigno (Graduate student)",
                "Ryan August C. Gonzales (Graduate student)",
                "Ven Jordan B. Diputado (Graduate student)",
                "Ma. Charlene C. Tapia (Graduate student)",
                "Kobi Christian S. Go (Undergraduate student)",
                "Kynan Daro C. Taclobao (Undergraduate student)",
                "Mich-Adrian Gomercia (Undergraduate student)",
                "Ma. Lorena Isabel Miranda (Undergraduate student)"
            ],
            "contactperson": "",
            "email": "",
            "mobile": "",
            "website": ""
        }
    ],
    "PSEL": [
        {   
            "image": require("../../assets/img/home/laboratory13.png"),
            "laboratory": "Process Systems Engineering Laboratory",
            "introduction": "Process Systems Engineering (PSE) is the integrative aspect of chemical engineering. It applies a systems-thinking perspective to solve engineering problems in the industry, transcending from small-scale to large-scale, usually aided with computers and numerical analysis. The core activities in PSE include process modelling and simulation, conceptual design and synthesis, process control, process operations and optimization. Theories from computer science, applied statistics, and applied numerical methods are utilized to provide actionable engineering solutions, as well as new insights, to real-world industrial problems.The Process Systems Engineering Lab at UP Diliman (PSEL) currently engages in research to provide data-driven solutions using machine learning and process data analytics for industrial applications such as Fault Detection and Diagnosis, Predictive Maintenance, Process Control, Process Dynamic Modelling, and Process Data Visualization. We consider field data as an important source of rich information. By extracting this information, our solutions can translate to improved decision-making for plant operations, even leading to process automation. To date, we have experience in deploying neural networks, support vector machines and other kernel machines, clustering, principal components analysis, canonical correlation analysis, and nonlinear state-space models in chemical process industries. Our work depends heavily on software such as MATLAB, Simulink, Python, GAMS, Aspen HYSYS, Aspen Plus, among others. We use them to simulate plant dynamics and control strategies, as well as to encode novel algorithms that perform optimization and machine learning. We also train our students to be proficient in these tools, hence, equipping them to become industry-ready, highly skilled professionals.",
            "members": [
                "Prof. Jose Munoz (Faculty)",
                "Asst. Prof. Karl Ezra Pilario (Faculty)",
                "Asst. Prof. Bemboy Nino Subosa (Faculty)",
                "Ricardo Roxas (Graduate student/Faculty)",
                "Jacey Menzies Ong (Undergraduate student)",
                "Dean Ryan Sotoya (Undergraduate student)",
                "Paul Elijah Malit (Undergraduate student)"
            ],
            "contactperson": "",
            "email": "",
            "mobile": "",
            "website": ""
        }
    ],
    "SPRCL": [
        {   
            "image": require("../../assets/img/home/laboratory14.png"),
            "laboratory": "Sustainable Production & Responsible Consumption Laboratory",
            "introduction": "The SPaRC lab performs integrative research in life cycle sustainability, systems modeling, decision analysis, and sustainability in engineering and education policy. We aim to be a hub for collaborative activities that enable businesses, consumers and policy makers to create sustainable actions and strategies. We provide tools and frameworks that elucidate the environmental, economic and social impacts of products, services and systems. Our multidisciplinary approach allows us to work with various stakeholders in industry and society to develop targeted solutions. Our research has taken us to applications in energy, water, food, transportation and other industrial sectors. In the continuous advancement towards sustainable development, the SPaRC lab will continue to promote awareness and competency in sustainable analysis and decision making.",
            "members": [
                "Asst. Prof. Jhud Mikhail O. Aberilla (Head)",
                "Ralph Justine Baguinon (Undergraduate student)",
                "Callista Angeli Miranda (Undergraduate student)",
                "Simon Rafael Pecho (Undergraduate student)",
                "Arizeo Salac (Undergraduate student)",
                "Fatima Grace Talan (Undergraduate student)",
                "Frances Nicole Tirado (Undergraduate student)"           
            ],
            "contactperson": "",
            "email": "",
            "mobile": "",
            "website": "https://pages.upd.edu.ph/jmaberilla/"
        }
    ]
  }
      